*** Settings ***
Library           Selenium2Library
Resource          ../Resources/login_object.txt
Library           BuiltIn

*** Test Cases ***
Request a car
    Open Browser    https://uatuser:iCarAsia999@dealer.preprod.carlist.my/    ff
    Input Text    //*[@id='txtLoginEmail']    minhanh
    Input Password    //*[@id='txtLoginPassword']    minhanh
    Click Button    //*[@id='btnSignIn']
    Click Element    http://uatuser:iCarAsia999@v3.preprod.carlist.my/car_request

random
    [Setup]
    ${random} =    Evaluate    random.randint(0,8 )    random,sys
    dfaf    8989

*** Keywords ***
dfaf
    [Arguments]    ${a}
    ${x}    Get Count    43    43
    Log    ${a}
    ${random} =    Evaluate    random.randint(0, ${a})    random,sys
